[gd_resource type="ShaderMaterial" load_steps=3 format=2]

[ext_resource path="res://Data/particles/SpriteSheetAdditive.shader" type="Shader" id=1]
[ext_resource path="res://Data/particles/spritesheet.png" type="Texture" id=2]

[resource]

render_priority = 0
shader = ExtResource( 1 )
shader_param/albedo = Color( 0.0117188, 1, 1, 1 )
shader_param/texture_albedo = ExtResource( 2 )
_sections_unfolded = [ "shader_param" ]

