; Engine configuration file.
; It's best edited using the editor UI and not directly,
; since the parameters that go here are not all obvious.
;
; Format:
;   [section] ; section goes between []
;   param=value ; assign values to parameters

config_version=3

[application]

config/name="atmosphere"
run/main_scene="res://Data/gui/Start.tscn"
boot_splash/image="res://Data/gui/background/background-image.png"
config/icon="res://icon.png"

[display]

window/size/width=1920
window/size/height=1080
window/stretch/mode="viewport"
window/stretch/aspect="keep_width"

[input]

launch_flare=[ Object(InputEventKey,"resource_local_to_scene":false,"resource_name":"","device":0,"alt":false,"shift":false,"control":false,"meta":false,"command":false,"pressed":false,"scancode":32,"unicode":0,"echo":false,"script":null)
, Object(InputEventMouseButton,"resource_local_to_scene":false,"resource_name":"","device":0,"alt":false,"shift":false,"control":false,"meta":false,"command":false,"button_mask":0,"position":Vector2( 0, 0 ),"global_position":Vector2( 0, 0 ),"factor":1.0,"button_index":1,"pressed":false,"doubleclick":false,"script":null)
 ]
strafe_left=[ Object(InputEventKey,"resource_local_to_scene":false,"resource_name":"","device":0,"alt":false,"shift":false,"control":false,"meta":false,"command":false,"pressed":false,"scancode":65,"unicode":0,"echo":false,"script":null)
 ]
strafe_right=[ Object(InputEventKey,"resource_local_to_scene":false,"resource_name":"","device":0,"alt":false,"shift":false,"control":false,"meta":false,"command":false,"pressed":false,"scancode":68,"unicode":0,"echo":false,"script":null)
 ]
strafe_up=[ Object(InputEventKey,"resource_local_to_scene":false,"resource_name":"","device":0,"alt":false,"shift":false,"control":false,"meta":false,"command":false,"pressed":false,"scancode":82,"unicode":0,"echo":false,"script":null)
 ]
strafe_down=[ Object(InputEventKey,"resource_local_to_scene":false,"resource_name":"","device":0,"alt":false,"shift":false,"control":false,"meta":false,"command":false,"pressed":false,"scancode":70,"unicode":0,"echo":false,"script":null)
 ]
strafe_forwards=[ Object(InputEventKey,"resource_local_to_scene":false,"resource_name":"","device":0,"alt":false,"shift":false,"control":false,"meta":false,"command":false,"pressed":false,"scancode":87,"unicode":0,"echo":false,"script":null)
 ]
strafe_backwards=[ Object(InputEventKey,"resource_local_to_scene":false,"resource_name":"","device":0,"alt":false,"shift":false,"control":false,"meta":false,"command":false,"pressed":false,"scancode":83,"unicode":0,"echo":false,"script":null)
 ]
pan_left=[ Object(InputEventKey,"resource_local_to_scene":false,"resource_name":"","device":0,"alt":false,"shift":false,"control":false,"meta":false,"command":false,"pressed":false,"scancode":16777231,"unicode":0,"echo":false,"script":null)
 ]
pan_right=[ Object(InputEventKey,"resource_local_to_scene":false,"resource_name":"","device":0,"alt":false,"shift":false,"control":false,"meta":false,"command":false,"pressed":false,"scancode":16777233,"unicode":0,"echo":false,"script":null)
 ]
rotate_up=[ Object(InputEventKey,"resource_local_to_scene":false,"resource_name":"","device":0,"alt":false,"shift":false,"control":false,"meta":false,"command":false,"pressed":false,"scancode":16777232,"unicode":0,"echo":false,"script":null)
 ]
rotate_down=[ Object(InputEventKey,"resource_local_to_scene":false,"resource_name":"","device":0,"alt":false,"shift":false,"control":false,"meta":false,"command":false,"pressed":false,"scancode":16777234,"unicode":0,"echo":false,"script":null)
 ]
roll_left=[ Object(InputEventKey,"resource_local_to_scene":false,"resource_name":"","device":0,"alt":false,"shift":false,"control":false,"meta":false,"command":false,"pressed":false,"scancode":81,"unicode":0,"echo":false,"script":null)
 ]
roll_right=[ Object(InputEventKey,"resource_local_to_scene":false,"resource_name":"","device":0,"alt":false,"shift":false,"control":false,"meta":false,"command":false,"pressed":false,"scancode":69,"unicode":0,"echo":false,"script":null)
 ]

[rendering]

environment/default_clear_color=Color( 0, 0, 0, 1 )
environment/default_environment="res://default_env.tres"
