[gd_resource type="ShaderMaterial" load_steps=3 format=2]

[ext_resource path="res://Data/particles/SpriteSheetAdditiveFalloff.shader" type="Shader" id=1]
[ext_resource path="res://Data/particles/spritesheet.png" type="Texture" id=2]

[resource]

render_priority = 0
shader = ExtResource( 1 )
shader_param/color = Color( 1, 0.703125, 0, 1 )
shader_param/fade = null
shader_param/texture_albedo = ExtResource( 2 )
_sections_unfolded = [ "shader_param" ]

